sim/wave/tb_aligner.vcd
$date
	Wed Mar 18 12:41:19 2026
$end
$version
	Icarus Verilog
$end
$timescale
	1ps
$end
$scope module tb_aligner $end
$var wire 9 ! total_cyc_out [8:0] $end
$var wire 1 " bs_valid $end
$var wire 4 # bs_out [3:0] $end
$var wire 1 $ bs_done $end
$var parameter 32 % EXP_W $end
$var parameter 32 & FP_W $end
$var parameter 33 ' MAN_TC_W $end
$var parameter 32 ( MAN_W $end
$var parameter 32 ) NUM_CH $end
$var reg 1 * clk $end
$var reg 5 + emax_r [4:0] $end
$var reg 5 , emin_r [4:0] $end
$var reg 64 - fp_vec_r [63:0] $end
$var reg 1 . load $end
$var reg 1 / r_act $end
$var reg 5 0 r_emax [4:0] $end
$var reg 5 1 r_emin [4:0] $end
$var reg 1 2 r_exp $end
$var reg 16 3 r_fp [15:0] $end
$var reg 64 4 r_vec [63:0] $end
$var reg 1 5 rst_n $end
$var reg 16 6 san_fp [15:0] $end
$var reg 12 7 san_tc [11:0] $end
$var reg 256 8 tc_name [255:0] $end
$var reg 1 9 tk_act_b $end
$var reg 1 : tk_exp_b $end
$var integer 32 ; err_total [31:0] $end
$var integer 32 < r_errs [31:0] $end
$var integer 32 = r_tot [31:0] $end
$var integer 32 > rc [31:0] $end
$var integer 32 ? rch [31:0] $end
$var integer 32 @ rng_seed [31:0] $end
$var integer 32 A rst_ok [31:0] $end
$var integer 32 B rv [31:0] $end
$var integer 32 C san_i [31:0] $end
$var integer 32 D san_ok [31:0] $end
$var integer 32 E tk_c [31:0] $end
$var integer 32 F tk_ch [31:0] $end
$var integer 32 G tk_cyc [31:0] $end
$var integer 32 H tk_err [31:0] $end
$scope function f_bit_ref $end
$var reg 5 I e [4:0] $end
$var reg 5 J ei [4:0] $end
$var reg 5 K em [4:0] $end
$var reg 16 L fp [15:0] $end
$var reg 1 M s $end
$var reg 12 N tc [11:0] $end
$var integer 32 O a [31:0] $end
$var integer 32 P c [31:0] $end
$upscope $end
$scope function f_mantc $end
$var reg 16 Q fp [15:0] $end
$var reg 11 R mag [10:0] $end
$var reg 1 S s $end
$upscope $end
$scope module dut $end
$var wire 1 $ bs_done $end
$var wire 1 " bs_valid $end
$var wire 1 * clk $end
$var wire 5 T emax [4:0] $end
$var wire 5 U emin [4:0] $end
$var wire 64 V fp_vec_in [63:0] $end
$var wire 1 . load $end
$var wire 1 5 rst_n $end
$var wire 9 W total_cyc_out [8:0] $end
$var wire 9 X total_cyc [8:0] $end
$var wire 4 Y bs_out [3:0] $end
$var parameter 33 Z CNT_W $end
$var parameter 32 [ EXP_W $end
$var parameter 32 \ FP_W $end
$var parameter 32 ] MAN_W $end
$var parameter 32 ^ NUM_CH $end
$var reg 9 _ cyc_cnt [8:0] $end
$var reg 1 ` running $end
$scope begin gen_channels[0] $end
$var parameter 2 a ch $end
$scope module u_ch $end
$var wire 1 * clk $end
$var wire 5 b emax [4:0] $end
$var wire 5 c emin [4:0] $end
$var wire 16 d fp_in [15:0] $end
$var wire 1 . load $end
$var wire 1 5 rst_n $end
$var wire 12 e man_tc [11:0] $end
$var wire 11 f magnitude [10:0] $end
$var wire 1 g fp_sign $end
$var wire 10 h fp_man [9:0] $end
$var wire 5 i fp_exp [4:0] $end
$var parameter 32 j EXP_W $end
$var parameter 32 k FP_W $end
$var parameter 33 l MAN_TC_W $end
$var parameter 32 m MAN_W $end
$var parameter 2 n S_ALIGN $end
$var parameter 2 o S_IDLE $end
$var parameter 2 p S_MANT $end
$var parameter 2 q S_ZERO $end
$var reg 1 r bit_out $end
$var reg 5 s exp_cur [4:0] $end
$var reg 12 t man_shift [11:0] $end
$var reg 4 u mant_cnt [3:0] $end
$var reg 1 v sign_bit $end
$var reg 2 w state [1:0] $end
$var reg 5 x zero_rem [4:0] $end
$upscope $end
$upscope $end
$scope begin gen_channels[1] $end
$var parameter 2 y ch $end
$scope module u_ch $end
$var wire 1 * clk $end
$var wire 5 z emax [4:0] $end
$var wire 5 { emin [4:0] $end
$var wire 16 | fp_in [15:0] $end
$var wire 1 . load $end
$var wire 1 5 rst_n $end
$var wire 12 } man_tc [11:0] $end
$var wire 11 ~ magnitude [10:0] $end
$var wire 1 !" fp_sign $end
$var wire 10 "" fp_man [9:0] $end
$var wire 5 #" fp_exp [4:0] $end
$var parameter 32 $" EXP_W $end
$var parameter 32 %" FP_W $end
$var parameter 33 &" MAN_TC_W $end
$var parameter 32 '" MAN_W $end
$var parameter 2 (" S_ALIGN $end
$var parameter 2 )" S_IDLE $end
$var parameter 2 *" S_MANT $end
$var parameter 2 +" S_ZERO $end
$var reg 1 ," bit_out $end
$var reg 5 -" exp_cur [4:0] $end
$var reg 12 ." man_shift [11:0] $end
$var reg 4 /" mant_cnt [3:0] $end
$var reg 1 0" sign_bit $end
$var reg 2 1" state [1:0] $end
$var reg 5 2" zero_rem [4:0] $end
$upscope $end
$upscope $end
$scope begin gen_channels[2] $end
$var parameter 3 3" ch $end
$scope module u_ch $end
$var wire 1 * clk $end
$var wire 5 4" emax [4:0] $end
$var wire 5 5" emin [4:0] $end
$var wire 16 6" fp_in [15:0] $end
$var wire 1 . load $end
$var wire 1 5 rst_n $end
$var wire 12 7" man_tc [11:0] $end
$var wire 11 8" magnitude [10:0] $end
$var wire 1 9" fp_sign $end
$var wire 10 :" fp_man [9:0] $end
$var wire 5 ;" fp_exp [4:0] $end
$var parameter 32 <" EXP_W $end
$var parameter 32 =" FP_W $end
$var parameter 33 >" MAN_TC_W $end
$var parameter 32 ?" MAN_W $end
$var parameter 2 @" S_ALIGN $end
$var parameter 2 A" S_IDLE $end
$var parameter 2 B" S_MANT $end
$var parameter 2 C" S_ZERO $end
$var reg 1 D" bit_out $end
$var reg 5 E" exp_cur [4:0] $end
$var reg 12 F" man_shift [11:0] $end
$var reg 4 G" mant_cnt [3:0] $end
$var reg 1 H" sign_bit $end
$var reg 2 I" state [1:0] $end
$var reg 5 J" zero_rem [4:0] $end
$upscope $end
$upscope $end
$scope begin gen_channels[3] $end
$var parameter 3 K" ch $end
$scope module u_ch $end
$var wire 1 * clk $end
$var wire 5 L" emax [4:0] $end
$var wire 5 M" emin [4:0] $end
$var wire 16 N" fp_in [15:0] $end
$var wire 1 . load $end
$var wire 1 5 rst_n $end
$var wire 12 O" man_tc [11:0] $end
$var wire 11 P" magnitude [10:0] $end
$var wire 1 Q" fp_sign $end
$var wire 10 R" fp_man [9:0] $end
$var wire 5 S" fp_exp [4:0] $end
$var parameter 32 T" EXP_W $end
$var parameter 32 U" FP_W $end
$var parameter 33 V" MAN_TC_W $end
$var parameter 32 W" MAN_W $end
$var parameter 2 X" S_ALIGN $end
$var parameter 2 Y" S_IDLE $end
$var parameter 2 Z" S_MANT $end
$var parameter 2 [" S_ZERO $end
$var reg 1 \" bit_out $end
$var reg 5 ]" exp_cur [4:0] $end
$var reg 12 ^" man_shift [11:0] $end
$var reg 4 _" mant_cnt [3:0] $end
$var reg 1 `" sign_bit $end
$var reg 2 a" state [1:0] $end
$var reg 5 b" zero_rem [4:0] $end
$upscope $end
$upscope $end
$upscope $end
$scope task run_test $end
$var reg 5 c" t_ei [4:0] $end
$var reg 5 d" t_em [4:0] $end
$var reg 64 e" t_vec [63:0] $end
$upscope $end
$scope task sanity_check $end
$upscope $end
$upscope $end
$enddefinitions $end
$comment Show the parameter values. $end
$dumpall
b11 ["
b10 Z"
b0 Y"
b1 X"
b1010 W"
b1100 V"
b10000 U"
b101 T"
b11 K"
b11 C"
b10 B"
b0 A"
b1 @"
b1010 ?"
b1100 >"
b10000 ="
b101 <"
b10 3"
b11 +"
b10 *"
b0 )"
b1 ("
b1010 '"
b1100 &"
b10000 %"
b101 $"
b1 y
b11 q
b10 p
b0 o
b1 n
b1010 m
b1100 l
b10000 k
b101 j
b0 a
b100 ^
b1010 ]
b10000 \
b101 [
b1001 Z
b100 )
b1010 (
b1100 '
b10000 &
b101 %
$end
#0
$dumpvars
bx e"
bx d"
bx c"
b0 b"
b0 a"
0`"
b0 _"
b0 ^"
b0 ]"
0\"
b0 S"
b0 R"
0Q"
b10000000000 P"
b10000000000 O"
b0 N"
b0 M"
b0 L"
b0 J"
b0 I"
0H"
b0 G"
b0 F"
b0 E"
0D"
b0 ;"
b0 :"
09"
b10000000000 8"
b10000000000 7"
b0 6"
b0 5"
b0 4"
b0 2"
b0 1"
00"
b0 /"
b0 ."
b0 -"
0,"
b0 #"
b0 ""
0!"
b10000000000 ~
b10000000000 }
b0 |
b0 {
b0 z
b0 x
b0 w
0v
b0 u
b0 t
b0 s
0r
b0 i
b0 h
0g
b10000000000 f
b10000000000 e
b0 d
b0 c
b0 b
0`
b0 _
b0 Y
b1100 X
b1100 W
b0 V
b0 U
b0 T
xS
bx R
bx Q
bx P
bx O
bx N
xM
bx L
bx K
bx J
bx I
bx H
bx G
bx F
bx E
bx D
bx C
bx B
bx A
b101010 @
bx ?
bx >
bx =
bx <
b0 ;
x:
x9
bx 8
bx 7
bx 6
05
bx 4
bx 3
x2
bx 1
bx 0
x/
0.
b0 -
b0 ,
b0 +
0*
0$
b0 #
0"
b1100 !
$end
#5000
1*
#10000
0*
#15000
1*
#20000
0*
#25000
1*
#30000
0*
#35000
1*
#40000
15
0*
#45000
1*
#50000
0*
#55000
b0 H
b10000 G
b101001111111111010100010101010101010010000000000101000000000000 e"
b10000 c"
b10100 d"
b10101000100001100110001010111110110000101101100011011000101111101110000011011110111001101011111010001010011110101000101011011010110000101111000 8
b0 O
b10000000000 N
b10100 I
0M
b101000000000000 L
b10100 K
b10000 J
b10000 P
b10001 C
b1 D
b10000000000 7
b10000000000 R
0S
b101000000000000 Q
b101000000000000 6
1*
#60000
b11000000000 }
b10101010101 7"
b11111111111 O"
b10100 i
b10100 #"
b11000000000 ~
b1000000000 ""
b10100 ;"
b10101010101 8"
b101010101 :"
b10100 S"
b11111111111 P"
b1111111111 R"
b101000000000000 d
b101001000000000 |
b101000101010101 6"
b101001111111111 N"
b10000 !
b10000 W
b10000 X
1.
b101001111111111010100010101010101010010000000000101000000000000 -
b101001111111111010100010101010101010010000000000101000000000000 V
b10000 ,
b10000 U
b10000 c
b10000 {
b10000 5"
b10000 M"
b10100 +
b10100 T
b10100 b
b10100 z
b10100 4"
b10100 L"
0*
#65000
1"
1`
b10100 ]"
b1 _"
b111111111110 ^"
b10 a"
b100 b"
b10100 E"
b1 G"
b101010101010 F"
b10 I"
b100 J"
b10100 -"
b1 /"
b110000000000 ."
b10 1"
b100 2"
b10100 s
b1 u
b100000000000 t
b10 w
b100 x
1*
#70000
b11111111111 N
b11111111111 R
b101001111111111 Q
b101001111111111 L
09
0:
b1 P
b100 F
b1 E
0.
0*
#75000
b10 u
b0 t
1r
b10 /"
b100000000000 ."
1,"
b10 G"
b10101010100 F"
1D"
b10 _"
b111111111100 ^"
b1111 #
b1111 Y
1\"
b1 _
1*
#80000
19
1:
b11111111111 N
b11111111111 R
b101001111111111 Q
b101001111111111 L
b10 P
b100 F
b10 E
0*
#85000
b10 _
b11 _"
b111111111000 ^"
b11 G"
b101010101000 F"
0D"
b11 /"
b0 ."
b11 u
b1010 #
b1010 Y
0r
1*
#90000
19
1:
b11111111111 N
b11111111111 R
b101001111111111 Q
b101001111111111 L
b11 P
b100 F
b11 E
0*
#95000
b100 u
b100 /"
0,"
b100 G"
b10101010000 F"
b1100 #
b1100 Y
1D"
b100 _"
b111111110000 ^"
b11 _
1*
#100000
19
1:
b11111111111 N
b11111111111 R
b101001111111111 Q
b101001111111111 L
b100 P
b100 F
b100 E
0*
#105000
b100 _
b101 _"
b111111100000 ^"
b101 G"
b101010100000 F"
b1000 #
b1000 Y
0D"
b101 /"
b101 u
1*
#110000
19
1:
b11111111111 N
b11111111111 R
b101001111111111 Q
b101001111111111 L
b101 P
b100 F
b101 E
0*
#115000
b110 u
b110 /"
b110 G"
b10101000000 F"
b1100 #
b1100 Y
1D"
b110 _"
b111111000000 ^"
b101 _
1*
#120000
19
1:
b11111111111 N
b11111111111 R
b101001111111111 Q
b101001111111111 L
b110 P
b100 F
b110 E
0*
#125000
b110 _
b111 _"
b111110000000 ^"
b111 G"
b101010000000 F"
b1000 #
b1000 Y
0D"
b111 /"
b111 u
1*
#130000
19
1:
b11111111111 N
b11111111111 R
b101001111111111 Q
b101001111111111 L
b111 P
b100 F
b111 E
0*
#135000
b1000 u
b1000 /"
b1000 G"
b10100000000 F"
b1100 #
b1100 Y
1D"
b1000 _"
b111100000000 ^"
b111 _
1*
#140000
19
1:
b11111111111 N
b11111111111 R
b101001111111111 Q
b101001111111111 L
b1000 P
b100 F
b1000 E
0*
#145000
b1000 _
b1001 _"
b111000000000 ^"
b1001 G"
b101000000000 F"
b1000 #
b1000 Y
0D"
b1001 /"
b1001 u
1*
#150000
19
1:
b11111111111 N
b11111111111 R
b101001111111111 Q
b101001111111111 L
b1001 P
b100 F
b1001 E
0*
#155000
b1010 u
b1010 /"
b1010 G"
b10000000000 F"
b1100 #
b1100 Y
1D"
b1010 _"
b110000000000 ^"
b1001 _
1*
#160000
19
1:
b11111111111 N
b11111111111 R
b101001111111111 Q
b101001111111111 L
b1010 P
b100 F
b1010 E
0*
#165000
b1010 _
b1011 _"
b100000000000 ^"
b1011 G"
b100000000000 F"
b1000 #
b1000 Y
0D"
b1011 /"
b1011 u
1*
#170000
19
1:
b11111111111 N
b11111111111 R
b101001111111111 Q
b101001111111111 L
b1011 P
b100 F
b1011 E
0*
#175000
b11 w
b1100 u
b11 1"
b1100 /"
b11 I"
b1100 G"
b0 F"
b1100 #
b1100 Y
1D"
b11 a"
b1100 _"
b0 ^"
b1011 _
1*
#180000
19
1:
b11111111111 N
b11111111111 R
b101001111111111 Q
b101001111111111 L
b1100 P
b100 F
b1100 E
0*
#185000
b1100 _
b11 b"
0\"
b11 J"
b0 #
b0 Y
0D"
b11 2"
b11 x
1*
#190000
09
0:
b11111111111 N
b11111111111 R
b101001111111111 Q
b101001111111111 L
b1101 P
b100 F
b1101 E
0*
#195000
b10 x
b10 2"
b10 J"
b10 b"
b1101 _
1*
#200000
b11111111111 N
b11111111111 R
b101001111111111 Q
b101001111111111 L
b1110 P
b100 F
b1110 E
0*
#205000
b1110 _
b1 b"
b1 J"
b1 2"
b1 x
1*
#210000
b11111111111 N
b11111111111 R
b101001111111111 Q
b101001111111111 L
b1111 P
b100 F
b1111 E
0*
#215000
1$
b0 w
b0 x
b0 1"
b0 2"
b0 I"
b0 J"
b0 a"
b0 b"
b1111 _
1*
#220000
b11111111111 N
b11111111111 R
b101001111111111 Q
b101001111111111 L
b10000 P
b100 F
b10000 E
0*
#225000
0$
b0 _
0"
0`
1*
#230000
b1100001111111111110000010101010111000010000000001100000000000000 e"
b10101000100001100110010010111110110000101101100011011000101111101101110011001010110011101011111010001010011110101000101011011010110100101101110 8
b10001 E
0*
#235000
1*
#240000
b110000000000 e
b101000000000 }
b101010101011 7"
b100000000001 O"
1g
b10000 i
1!"
b10000 #"
19"
b10000 ;"
1Q"
b10000 S"
b1100000000000000 d
b1100001000000000 |
b1100000101010101 6"
b1100001111111111 N"
1.
b1100001111111111110000010101010111000010000000001100000000000000 -
b1100001111111111110000010101010111000010000000001100000000000000 V
0*
#245000
1"
1`
b10001 ]"
b1 a"
b0 _"
b100000000001 ^"
1\"
1`"
b10001 E"
b1 I"
b0 G"
b101010101011 F"
1D"
1H"
b10001 -"
b1 1"
b0 /"
b101000000000 ."
1,"
10"
b10001 s
b1 w
b0 u
b110000000000 t
b1111 #
b1111 Y
1r
1v
1*
#250000
19
1:
b100 O
b100000000001 N
b11111111111 R
1S
b1100001111111111 Q
b10000 I
1M
b1100001111111111 L
b1 P
b100 F
b1 E
0.
0*
#255000
b10010 s
b10010 -"
b10010 E"
b10010 ]"
b1 _
1*
#260000
b100000000001 N
b11111111111 R
b1100001111111111 Q
b1100001111111111 L
b10 P
b100 F
b10 E
0*
#265000
b10 _
b10011 ]"
b10011 E"
b10011 -"
b10011 s
1*
#270000
b100000000001 N
b11111111111 R
b1100001111111111 Q
b1100001111111111 L
b11 P
b100 F
b11 E
0*
#275000
b10 w
b10100 s
b10 1"
b10100 -"
b10 I"
b10100 E"
b10 a"
b10100 ]"
b11 _
1*
#280000
b100000000001 N
b11111111111 R
b1100001111111111 Q
b1100001111111111 L
b100 P
b100 F
b100 E
0*
#285000
b100 _
b1 _"
b10 ^"
b1 G"
b10101010110 F"
b1 /"
b10000000000 ."
b1 u
b100000000000 t
1*
#290000
b100000000001 N
b11111111111 R
b1100001111111111 Q
b1100001111111111 L
b101 P
b100 F
b101 E
0*
#295000
b10 u
b0 t
b10 /"
b100000000000 ."
0,"
b10 G"
b101010101100 F"
0D"
b10 _"
b100 ^"
b1 #
b1 Y
0\"
b101 _
1*
#300000
09
0:
b100000000001 N
b11111111111 R
b1100001111111111 Q
b1100001111111111 L
b110 P
b100 F
b110 E
0*
#305000
b110 _
b11 _"
b1000 ^"
b11 G"
b10101011000 F"
1D"
b11 /"
b0 ."
1,"
b11 u
b110 #
b110 Y
0r
1*
#310000
09
0:
b100000000001 N
b11111111111 R
b1100001111111111 Q
b1100001111111111 L
b111 P
b100 F
b111 E
0*
#315000
b100 u
b100 /"
0,"
b100 G"
b101010110000 F"
b0 #
b0 Y
0D"
b100 _"
b10000 ^"
b111 _
1*
#320000
b100000000001 N
b11111111111 R
b1100001111111111 Q
b1100001111111111 L
b1000 P
b100 F
b1000 E
0*
#325000
b1000 _
b101 _"
b100000 ^"
b101 G"
b10101100000 F"
b100 #
b100 Y
1D"
b101 /"
b101 u
1*
#330000
09
0:
b100000000001 N
b11111111111 R
b1100001111111111 Q
b1100001111111111 L
b1001 P
b100 F
b1001 E
0*
#335000
b110 u
b110 /"
b110 G"
b101011000000 F"
b0 #
b0 Y
0D"
b110 _"
b1000000 ^"
b1001 _
1*
#340000
b100000000001 N
b11111111111 R
b1100001111111111 Q
b1100001111111111 L
b1010 P
b100 F
b1010 E
0*
#345000
b1010 _
b111 _"
b10000000 ^"
b111 G"
b10110000000 F"
b100 #
b100 Y
1D"
b111 /"
b111 u
1*
#350000
09
0:
b100000000001 N
b11111111111 R
b1100001111111111 Q
b1100001111111111 L
b1011 P
b100 F
b1011 E
0*
#355000
b1000 u
b1000 /"
b1000 G"
b101100000000 F"
b0 #
b0 Y
0D"
b1000 _"
b100000000 ^"
b1011 _
1*
#360000
b100000000001 N
b11111111111 R
b1100001111111111 Q
b1100001111111111 L
b1100 P
b100 F
b1100 E
0*
#365000
b1100 _
b1001 _"
b1000000000 ^"
b1001 G"
b11000000000 F"
b100 #
b100 Y
1D"
b1001 /"
b1001 u
1*
#370000
09
0:
b100000000001 N
b11111111111 R
b1100001111111111 Q
b1100001111111111 L
b1101 P
b100 F
b1101 E
0*
#375000
b1010 u
b1010 /"
b1010 G"
b110000000000 F"
b0 #
b0 Y
0D"
b1010 _"
b10000000000 ^"
b1101 _
1*
#380000
b100000000001 N
b11111111111 R
b1100001111111111 Q
b1100001111111111 L
b1110 P
b100 F
b1110 E
0*
#385000
b1110 _
b1011 _"
b100000000000 ^"
b1011 G"
b100000000000 F"
b100 #
b100 Y
1D"
b1011 /"
b1011 u
1*
#390000
09
0:
b100000000001 N
b11111111111 R
b1100001111111111 Q
b1100001111111111 L
b1111 P
b100 F
b1111 E
0*
#395000
1$
b0 w
b1100 u
b0 1"
b1100 /"
b0 I"
b1100 G"
b0 F"
b0 a"
b1100 _"
b0 ^"
b1100 #
b1100 Y
1\"
b1111 _
1*
#400000
19
1:
b100000000001 N
b11111111111 R
b1100001111111111 Q
b1100001111111111 L
b10000 P
b100 F
b10000 E
0*
#405000
0$
b0 _
0"
0`
0\"
b0 #
b0 Y
0D"
1*
#410000
b1101001100110011010011000100010011000110101010100100000110011001 e"
b10101000100001100110011010111110110110101101001011110000110010101100100010111110111001101101001011001110110111001011111011001010111100001110000 8
b10001 E
0*
#415000
1*
#420000
b100101010110 }
b100011001101 O"
b10110011001 e
b10001000100 7"
0g
b10110011001 f
b110011001 h
b10001 #"
b11010101010 ~
b1010101010 ""
09"
b10011 ;"
b10001000100 8"
b1000100 :"
b10100 S"
b11100110011 P"
b1100110011 R"
b100000110011001 d
b1100011010101010 |
b100110001000100 6"
b1101001100110011 N"
1.
b1101001100110011010011000100010011000110101010100100000110011001 -
b1101001100110011010011000100010011000110101010100100000110011001 V
0*
#425000
1"
1`
b1 _"
b110011010 ^"
1\"
b10 a"
b100 b"
b10 I"
b0 G"
b10001000100 F"
b11 J"
0H"
b10010 -"
b1 1"
b0 /"
b100101010110 ."
b1010 #
b1010 Y
1,"
b1 2"
b10001 s
b1 w
b0 u
b10110011001 t
0v
1*
#430000
b0 O
b10100 I
19
1:
b100011001101 N
b11100110011 R
1S
b1101001100110011 Q
1M
b1101001100110011 L
b1 P
b100 F
b1 E
0.
0*
#435000
b10010 s
b10011 -"
b1 G"
b100010001000 F"
b10 _"
b1100110100 ^"
b10 #
b10 Y
0\"
b1 _
1*
#440000
09
0:
b0 O
b100011001101 N
b11100110011 R
1S
b1101001100110011 Q
b10100 I
1M
b1101001100110011 L
b10 P
b100 F
b10 E
0*
#445000
b10 _
b11 _"
b11001101000 ^"
b10 G"
b100010000 F"
b110 #
b110 Y
1D"
b10 1"
b10100 -"
b10011 s
1*
#450000
09
0:
b0 O
b100011001101 N
b11100110011 R
1S
b1101001100110011 Q
b10100 I
1M
b1101001100110011 L
b11 P
b100 F
b11 E
0*
#455000
b10 w
b10100 s
b1 /"
b1010101100 ."
b11 G"
b1000100000 F"
b10 #
b10 Y
0D"
b100 _"
b110011010000 ^"
b11 _
1*
#460000
09
0:
b0 O
b100011001101 N
b11100110011 R
1S
b1101001100110011 Q
b10100 I
1M
b1101001100110011 L
b100 P
b100 F
b100 E
0*
#465000
b100 _
b101 _"
b100110100000 ^"
1\"
b100 G"
b10001000000 F"
b10 /"
b10101011000 ."
b1000 #
b1000 Y
0,"
b1 u
b101100110010 t
1*
#470000
19
1:
b0 O
b100011001101 N
b11100110011 R
1S
b1101001100110011 Q
b10100 I
1M
b1101001100110011 L
b101 P
b100 F
b101 E
0*
#475000
b10 u
b11001100100 t
b1001 #
b1001 Y
1r
b11 /"
b101010110000 ."
b101 G"
b100010000000 F"
b110 _"
b1101000000 ^"
b101 _
1*
#480000
19
1:
b0 O
b100011001101 N
b11100110011 R
1S
b1101001100110011 Q
b10100 I
1M
b1101001100110011 L
b110 P
b100 F
b110 E
0*
#485000
b110 _
b111 _"
b11010000000 ^"
0\"
b110 G"
b100000000 F"
1D"
b100 /"
b10101100000 ."
1,"
b11 u
b110011001000 t
b110 #
b110 Y
0r
1*
#490000
09
0:
b0 O
b100011001101 N
b11100110011 R
1S
b1101001100110011 Q
b10100 I
1M
b1101001100110011 L
b111 P
b100 F
b111 E
0*
#495000
b100 u
b100110010000 t
1r
b101 /"
b101011000000 ."
0,"
b111 G"
b1000000000 F"
b1 #
b1 Y
0D"
b1000 _"
b110100000000 ^"
b111 _
1*
#500000
09
0:
b0 O
b100011001101 N
b11100110011 R
1S
b1101001100110011 Q
b10100 I
1M
b1101001100110011 L
b1000 P
b100 F
b1000 E
0*
#505000
b1000 _
b1001 _"
b101000000000 ^"
1\"
b1000 G"
b10000000000 F"
b110 /"
b10110000000 ."
b1011 #
b1011 Y
1,"
b101 u
b1100100000 t
1*
#510000
19
1:
b0 O
b100011001101 N
b11100110011 R
1S
b1101001100110011 Q
b10100 I
1M
b1101001100110011 L
b1001 P
b100 F
b1001 E
0*
#515000
b110 u
b11001000000 t
0r
b111 /"
b101100000000 ."
b1000 #
b1000 Y
0,"
b1001 G"
b100000000000 F"
b1010 _"
b10000000000 ^"
b1001 _
1*
#520000
19
1:
b0 O
b100011001101 N
b11100110011 R
1S
b1101001100110011 Q
b10100 I
1M
b1101001100110011 L
b1010 P
b100 F
b1010 E
0*
#525000
b1010 _
b1011 _"
b100000000000 ^"
0\"
b1010 G"
b0 F"
1D"
b1000 /"
b11000000000 ."
b110 #
b110 Y
1,"
b111 u
b110010000000 t
1*
#530000
09
0:
b0 O
b100011001101 N
b11100110011 R
1S
b1101001100110011 Q
b10100 I
1M
b1101001100110011 L
b1011 P
b100 F
b1011 E
0*
#535000
b1000 u
b100100000000 t
1r
b1001 /"
b110000000000 ."
0,"
b1011 G"
0D"
b11 a"
b1100 _"
b0 ^"
b1001 #
b1001 Y
1\"
b1011 _
1*
#540000
19
1:
b0 O
b100011001101 N
b11100110011 R
1S
b1101001100110011 Q
b10100 I
1M
b1101001100110011 L
b1100 P
b100 F
b1100 E
0*
#545000
b1100 _
b11 b"
0\"
b11 I"
b1100 G"
b1010 /"
b100000000000 ."
b11 #
b11 Y
1,"
b1001 u
b1000000000 t
1*
#550000
09
0:
b0 O
b100011001101 N
b11100110011 R
1S
b1101001100110011 Q
b10100 I
1M
b1101001100110011 L
b1101 P
b100 F
b1101 E
0*
#555000
b1010 u
b10000000000 t
b10 #
b10 Y
0r
b1011 /"
b0 ."
b10 J"
b10 b"
b1101 _
1*
#560000
09
0:
b0 O
b100011001101 N
b11100110011 R
1S
b1101001100110011 Q
b10100 I
1M
b1101001100110011 L
b1110 P
b100 F
b1110 E
0*
#565000
b1110 _
b1 b"
b1 J"
b11 1"
b1100 /"
b0 #
b0 Y
0,"
b1011 u
b100000000000 t
1*
#570000
b0 O
b100011001101 N
b11100110011 R
1S
b1101001100110011 Q
b10100 I
1M
b1101001100110011 L
b1111 P
b100 F
b1111 E
0*
#575000
1$
b0 w
b1100 u
b0 t
b1 #
b1 Y
1r
b0 1"
b0 2"
b0 I"
b0 J"
b0 a"
b0 b"
b1111 _
1*
#580000
09
0:
b0 O
b100011001101 N
b11100110011 R
1S
b1101001100110011 Q
b10100 I
1M
b1101001100110011 L
b10000 P
b100 F
b10000 E
0*
#585000
0$
b0 _
0"
0`
b0 #
b0 Y
0r
1*
#590000
b1100 G
b1011111111000011001111000011110010111111001100110011110011001100 e"
b1111 c"
b1111 d"
b1010100010000110011010001011111010001010110110101100001011110000011110101000101011011010110100101101110010111110011000100110010011000110111100101100011 8
b10001 E
0*
#595000
1*
#600000
b100011001101 }
b100000111101 O"
b10011001100 e
b10000111100 7"
b1111 i
b10011001100 f
b11001100 h
b1111 #"
b11100110011 ~
b1100110011 ""
b1111 ;"
b10000111100 8"
b111100 :"
b1111 S"
b11111000011 P"
b1111000011 R"
b11110011001100 d
b1011111100110011 |
b11110000111100 6"
b1011111111000011 N"
b1100 !
b1100 W
b1100 X
1.
b1011111111000011001111000011110010111111001100110011110011001100 -
b1011111111000011001111000011110010111111001100110011110011001100 V
b1111 ,
b1111 U
b1111 c
b1111 {
b1111 5"
b1111 M"
b1111 +
b1111 T
b1111 b
b1111 z
b1111 4"
b1111 L"
0*
#605000
1"
1`
b1111 ]"
b1 _"
b1111010 ^"
1\"
b10 a"
b1111 E"
b1 G"
b100001111000 F"
b10 I"
b1111 -"
b1 /"
b110011010 ."
b1010 #
b1010 Y
1,"
b10 1"
b1111 s
b1 u
b100110011000 t
b10 w
1*
#610000
19
1:
b100000111101 N
b11111000011 R
1S
b1011111111000011 Q
b1111 I
1M
b1011111111000011 L
b1111 K
b1111 J
b1 P
b100 F
b1 E
0.
0*
#615000
b10 u
b1100110000 t
1r
b10 /"
b1100110100 ."
0,"
b10 G"
b11110000 F"
1D"
b10 _"
b11110100 ^"
b101 #
b101 Y
0\"
b1 _
1*
#620000
09
0:
b100000111101 N
b11111000011 R
1S
b1011111111000011 Q
1M
b1011111111000011 L
b10 P
b100 F
b10 E
0*
#625000
b10 _
b11 _"
b111101000 ^"
b11 G"
b111100000 F"
0D"
b11 /"
b11001101000 ."
b11 u
b11001100000 t
b0 #
b0 Y
0r
1*
#630000
b100000111101 N
b11111000011 R
1S
b1011111111000011 Q
1M
b1011111111000011 L
b11 P
b100 F
b11 E
0*
#635000
b100 u
b110011000000 t
b100 /"
b110011010000 ."
b100 G"
b1111000000 F"
b100 _"
b1111010000 ^"
b11 _
1*
#640000
b100000111101 N
b11111000011 R
1S
b1011111111000011 Q
1M
b1011111111000011 L
b100 P
b100 F
b100 E
0*
#645000
b100 _
b101 _"
b11110100000 ^"
b101 G"
b11110000000 F"
b101 /"
b100110100000 ."
1,"
b101 u
b100110000000 t
b11 #
b11 Y
1r
1*
#650000
09
0:
b100000111101 N
b11111000011 R
1S
b1011111111000011 Q
1M
b1011111111000011 L
b101 P
b100 F
b101 E
0*
#655000
b110 u
b1100000000 t
b110 /"
b1101000000 ."
b110 G"
b111100000000 F"
b110 _"
b111101000000 ^"
b101 _
1*
#660000
09
0:
b100000111101 N
b11111000011 R
1S
b1011111111000011 Q
1M
b1011111111000011 L
b110 P
b100 F
b110 E
0*
#665000
b110 _
b111 _"
b111010000000 ^"
1\"
b111 G"
b111000000000 F"
1D"
b111 /"
b11010000000 ."
0,"
b111 u
b11000000000 t
b1100 #
b1100 Y
0r
1*
#670000
19
1:
b100000111101 N
b11111000011 R
1S
b1011111111000011 Q
1M
b1011111111000011 L
b111 P
b100 F
b111 E
0*
#675000
b1000 u
b110000000000 t
b1000 /"
b110100000000 ."
b1000 G"
b110000000000 F"
b1000 _"
b110100000000 ^"
b111 _
1*
#680000
19
1:
b100000111101 N
b11111000011 R
1S
b1011111111000011 Q
1M
b1011111111000011 L
b1000 P
b100 F
b1000 E
0*
#685000
b1000 _
b1001 _"
b101000000000 ^"
b1001 G"
b100000000000 F"
b1001 /"
b101000000000 ."
1,"
b1001 u
b100000000000 t
b1111 #
b1111 Y
1r
1*
#690000
b100000111101 N
b11111000011 R
1S
b1011111111000011 Q
1M
b1011111111000011 L
b1001 P
b100 F
b1001 E
0*
