sim/wave/tb_int_to_fp_acc.vcd
$date
	Wed Mar 18 12:28:49 2026
$end
$version
	Icarus Verilog
$end
$timescale
	1ps
$end
$scope module tb_int_to_fp_acc $end
$var wire 1 ! fp16_valid $end
$var wire 64 " fp16_result_flat [63:0] $end
$var parameter 32 # CLK_T $end
$var parameter 32 $ NUM_COL $end
$var parameter 32 % PSUM_W $end
$var reg 1 & acc_clear $end
$var reg 1 ' clk $end
$var reg 5 ( emin [4:0] $end
$var reg 128 ) mac_result_flat [127:0] $end
$var reg 1 * mac_valid $end
$var reg 1 + ok_flag $end
$var reg 1 , rst_n $end
$var reg 1 - writeback $end
$var integer 32 . fail_cnt [31:0] $end
$var integer 32 / pass_cnt [31:0] $end
$scope module dut $end
$var wire 1 & acc_clear $end
$var wire 1 ' clk $end
$var wire 5 0 emin [4:0] $end
$var wire 128 1 mac_result_flat [127:0] $end
$var wire 1 * mac_valid $end
$var wire 1 , rst_n $end
$var wire 1 - writeback $end
$var wire 6 2 e_bias [5:0] $end
$var parameter 32 3 EBIAS_W $end
$var parameter 32 4 EXP_W $end
$var parameter 6 5 LP_15 $end
$var parameter 6 6 LP_MANW $end
$var parameter 32 7 MAN_W $end
$var parameter 32 8 NUM_COL $end
$var parameter 32 9 PSUM_W $end
$var reg 64 : fp16_result_flat [63:0] $end
$var reg 1 ! fp16_valid $end
$var integer 32 ; ci [31:0] $end
$scope begin GEN_CH[0] $end
$var parameter 2 < j $end
$scope module u_fp21_adder $end
$var wire 1 = a_ge_b $end
$var wire 21 > b [20:0] $end
$var wire 1 ? round_up $end
$var wire 1 @ s_res $end
$var wire 1 A same_sign $end
$var wire 1 B zero_b $end
$var wire 1 C zero_a $end
$var wire 21 D y [20:0] $end
$var wire 1 E sum_zero $end
$var wire 40 F sum_wide [39:0] $end
$var wire 21 G sum_21 [20:0] $end
$var wire 1 H sticky_all $end
$var wire 20 I sig_sm_al [19:0] $end
$var wire 20 J sig_sm [19:0] $end
$var wire 20 K sig_lg [19:0] $end
$var wire 20 L sig_b [19:0] $end
$var wire 20 M sig_a [19:0] $end
$var wire 1 N s_sm $end
$var wire 1 O s_lg $end
$var wire 1 P s_b $end
$var wire 1 Q s_a $end
$var wire 40 R norm_wide [39:0] $end
$var wire 15 S mant_out [14:0] $end
$var wire 15 T mant_norm [14:0] $end
$var wire 16 U mant_inc [15:0] $end
$var wire 1 V mant_carry $end
$var wire 15 W m_b [14:0] $end
$var wire 15 X m_a [14:0] $end
$var wire 1 Y guard_bit $end
$var wire 1 Z exp_underflow $end
$var wire 8 [ exp_raw8 [7:0] $end
$var wire 1 \ exp_overflow $end
$var wire 5 ] exp_out [4:0] $end
$var wire 5 ^ ediff [4:0] $end
$var wire 5 _ e_sm [4:0] $end
$var wire 5 ` e_lg [4:0] $end
$var wire 5 a e_b [4:0] $end
$var wire 5 b e_a [4:0] $end
$var wire 5 c c [4:0] $end
$var wire 21 d a [20:0] $end
$scope function clz21 $end
$var reg 21 e x [20:0] $end
$upscope $end
$upscope $end
$scope module u_fp21_to_fp16 $end
$var wire 6 f e_bias [5:0] $end
$var wire 21 g fp21 [20:0] $end
$var wire 1 h out_underflow $end
$var wire 1 i round_up $end
$var wire 1 j sticky $end
$var wire 1 k s_21 $end
$var wire 1 l rnd_bit $end
$var wire 1 m out_overflow $end
$var wire 11 n mant_inc [10:0] $end
$var wire 1 o mant_carry $end
$var wire 10 p mant10_raw [9:0] $end
$var wire 15 q m_21 [14:0] $end
$var wire 1 r is_zero $end
$var wire 10 s fp16_mant [9:0] $end
$var wire 5 t fp16_exp [4:0] $end
$var wire 16 u fp16 [15:0] $end
$var wire 8 v exp_biased [7:0] $end
$var wire 9 w exp_adj [8:0] $end
$var wire 8 x e_bias_8 [7:0] $end
$var wire 5 y e_21 [4:0] $end
$var parameter 32 z EBIAS_W $end
$upscope $end
$scope module u_int_to_fp21 $end
$var wire 32 { psum [31:0] $end
$var wire 1 | round_up $end
$var wire 1 } sticky $end
$var wire 1 ~ sign_bit $end
$var wire 32 !" shifted [31:0] $end
$var wire 1 "" round_bit $end
$var wire 15 #" mant_raw [14:0] $end
$var wire 16 $" mant_inc [15:0] $end
$var wire 15 %" mant_final [14:0] $end
$var wire 1 &" mant_carry $end
$var wire 32 '" mag [31:0] $end
$var wire 1 (" is_zero $end
$var wire 21 )" fp21 [20:0] $end
$var wire 5 *" exp_raw [4:0] $end
$var wire 5 +" exp_final [4:0] $end
$var wire 6 ," clz [5:0] $end
$scope function clz32 $end
$var reg 32 -" x [31:0] $end
$upscope $end
$upscope $end
$upscope $end
$scope begin GEN_CH[1] $end
$var parameter 2 ." j $end
$scope module u_fp21_adder $end
$var wire 1 /" a_ge_b $end
$var wire 21 0" b [20:0] $end
$var wire 1 1" round_up $end
$var wire 1 2" s_res $end
$var wire 1 3" same_sign $end
$var wire 1 4" zero_b $end
$var wire 1 5" zero_a $end
$var wire 21 6" y [20:0] $end
$var wire 1 7" sum_zero $end
$var wire 40 8" sum_wide [39:0] $end
$var wire 21 9" sum_21 [20:0] $end
$var wire 1 :" sticky_all $end
$var wire 20 ;" sig_sm_al [19:0] $end
$var wire 20 <" sig_sm [19:0] $end
$var wire 20 =" sig_lg [19:0] $end
$var wire 20 >" sig_b [19:0] $end
$var wire 20 ?" sig_a [19:0] $end
$var wire 1 @" s_sm $end
$var wire 1 A" s_lg $end
$var wire 1 B" s_b $end
$var wire 1 C" s_a $end
$var wire 40 D" norm_wide [39:0] $end
$var wire 15 E" mant_out [14:0] $end
$var wire 15 F" mant_norm [14:0] $end
$var wire 16 G" mant_inc [15:0] $end
$var wire 1 H" mant_carry $end
$var wire 15 I" m_b [14:0] $end
$var wire 15 J" m_a [14:0] $end
$var wire 1 K" guard_bit $end
$var wire 1 L" exp_underflow $end
$var wire 8 M" exp_raw8 [7:0] $end
$var wire 1 N" exp_overflow $end
$var wire 5 O" exp_out [4:0] $end
$var wire 5 P" ediff [4:0] $end
$var wire 5 Q" e_sm [4:0] $end
$var wire 5 R" e_lg [4:0] $end
$var wire 5 S" e_b [4:0] $end
$var wire 5 T" e_a [4:0] $end
$var wire 5 U" c [4:0] $end
$var wire 21 V" a [20:0] $end
$scope function clz21 $end
$var reg 21 W" x [20:0] $end
$upscope $end
$upscope $end
$scope module u_fp21_to_fp16 $end
$var wire 6 X" e_bias [5:0] $end
$var wire 21 Y" fp21 [20:0] $end
$var wire 1 Z" out_underflow $end
$var wire 1 [" round_up $end
$var wire 1 \" sticky $end
$var wire 1 ]" s_21 $end
$var wire 1 ^" rnd_bit $end
$var wire 1 _" out_overflow $end
$var wire 11 `" mant_inc [10:0] $end
$var wire 1 a" mant_carry $end
$var wire 10 b" mant10_raw [9:0] $end
$var wire 15 c" m_21 [14:0] $end
$var wire 1 d" is_zero $end
$var wire 10 e" fp16_mant [9:0] $end
$var wire 5 f" fp16_exp [4:0] $end
$var wire 16 g" fp16 [15:0] $end
$var wire 8 h" exp_biased [7:0] $end
$var wire 9 i" exp_adj [8:0] $end
$var wire 8 j" e_bias_8 [7:0] $end
$var wire 5 k" e_21 [4:0] $end
$var parameter 32 l" EBIAS_W $end
$upscope $end
$scope module u_int_to_fp21 $end
$var wire 32 m" psum [31:0] $end
$var wire 1 n" round_up $end
$var wire 1 o" sticky $end
$var wire 1 p" sign_bit $end
$var wire 32 q" shifted [31:0] $end
$var wire 1 r" round_bit $end
$var wire 15 s" mant_raw [14:0] $end
$var wire 16 t" mant_inc [15:0] $end
$var wire 15 u" mant_final [14:0] $end
$var wire 1 v" mant_carry $end
$var wire 32 w" mag [31:0] $end
$var wire 1 x" is_zero $end
$var wire 21 y" fp21 [20:0] $end
$var wire 5 z" exp_raw [4:0] $end
$var wire 5 {" exp_final [4:0] $end
$var wire 6 |" clz [5:0] $end
$scope function clz32 $end
$var reg 32 }" x [31:0] $end
$upscope $end
$upscope $end
$upscope $end
$scope begin GEN_CH[2] $end
$var parameter 3 ~" j $end
$scope module u_fp21_adder $end
$var wire 1 !# a_ge_b $end
$var wire 21 "# b [20:0] $end
$var wire 1 ## round_up $end
$var wire 1 $# s_res $end
$var wire 1 %# same_sign $end
$var wire 1 &# zero_b $end
$var wire 1 '# zero_a $end
$var wire 21 (# y [20:0] $end
$var wire 1 )# sum_zero $end
$var wire 40 *# sum_wide [39:0] $end
$var wire 21 +# sum_21 [20:0] $end
$var wire 1 ,# sticky_all $end
$var wire 20 -# sig_sm_al [19:0] $end
$var wire 20 .# sig_sm [19:0] $end
$var wire 20 /# sig_lg [19:0] $end
$var wire 20 0# sig_b [19:0] $end
$var wire 20 1# sig_a [19:0] $end
$var wire 1 2# s_sm $end
$var wire 1 3# s_lg $end
$var wire 1 4# s_b $end
$var wire 1 5# s_a $end
$var wire 40 6# norm_wide [39:0] $end
$var wire 15 7# mant_out [14:0] $end
$var wire 15 8# mant_norm [14:0] $end
$var wire 16 9# mant_inc [15:0] $end
$var wire 1 :# mant_carry $end
$var wire 15 ;# m_b [14:0] $end
$var wire 15 <# m_a [14:0] $end
$var wire 1 =# guard_bit $end
$var wire 1 ># exp_underflow $end
$var wire 8 ?# exp_raw8 [7:0] $end
$var wire 1 @# exp_overflow $end
$var wire 5 A# exp_out [4:0] $end
$var wire 5 B# ediff [4:0] $end
$var wire 5 C# e_sm [4:0] $end
$var wire 5 D# e_lg [4:0] $end
$var wire 5 E# e_b [4:0] $end
$var wire 5 F# e_a [4:0] $end
$var wire 5 G# c [4:0] $end
$var wire 21 H# a [20:0] $end
$scope function clz21 $end
$var reg 21 I# x [20:0] $end
$upscope $end
$upscope $end
$scope module u_fp21_to_fp16 $end
$var wire 6 J# e_bias [5:0] $end
$var wire 21 K# fp21 [20:0] $end
$var wire 1 L# out_underflow $end
$var wire 1 M# round_up $end
$var wire 1 N# sticky $end
$var wire 1 O# s_21 $end
$var wire 1 P# rnd_bit $end
$var wire 1 Q# out_overflow $end
$var wire 11 R# mant_inc [10:0] $end
$var wire 1 S# mant_carry $end
$var wire 10 T# mant10_raw [9:0] $end
$var wire 15 U# m_21 [14:0] $end
$var wire 1 V# is_zero $end
$var wire 10 W# fp16_mant [9:0] $end
$var wire 5 X# fp16_exp [4:0] $end
$var wire 16 Y# fp16 [15:0] $end
$var wire 8 Z# exp_biased [7:0] $end
$var wire 9 [# exp_adj [8:0] $end
$var wire 8 \# e_bias_8 [7:0] $end
$var wire 5 ]# e_21 [4:0] $end
$var parameter 32 ^# EBIAS_W $end
$upscope $end
$scope module u_int_to_fp21 $end
$var wire 32 _# psum [31:0] $end
$var wire 1 `# round_up $end
$var wire 1 a# sticky $end
$var wire 1 b# sign_bit $end
$var wire 32 c# shifted [31:0] $end
$var wire 1 d# round_bit $end
$var wire 15 e# mant_raw [14:0] $end
$var wire 16 f# mant_inc [15:0] $end
$var wire 15 g# mant_final [14:0] $end
$var wire 1 h# mant_carry $end
$var wire 32 i# mag [31:0] $end
$var wire 1 j# is_zero $end
$var wire 21 k# fp21 [20:0] $end
$var wire 5 l# exp_raw [4:0] $end
$var wire 5 m# exp_final [4:0] $end
$var wire 6 n# clz [5:0] $end
$scope function clz32 $end
$var reg 32 o# x [31:0] $end
$upscope $end
$upscope $end
$upscope $end
$scope begin GEN_CH[3] $end
$var parameter 3 p# j $end
$scope module u_fp21_adder $end
$var wire 1 q# a_ge_b $end
$var wire 21 r# b [20:0] $end
$var wire 1 s# round_up $end
$var wire 1 t# s_res $end
$var wire 1 u# same_sign $end
$var wire 1 v# zero_b $end
$var wire 1 w# zero_a $end
$var wire 21 x# y [20:0] $end
$var wire 1 y# sum_zero $end
$var wire 40 z# sum_wide [39:0] $end
$var wire 21 {# sum_21 [20:0] $end
$var wire 1 |# sticky_all $end
$var wire 20 }# sig_sm_al [19:0] $end
$var wire 20 ~# sig_sm [19:0] $end
$var wire 20 !$ sig_lg [19:0] $end
$var wire 20 "$ sig_b [19:0] $end
$var wire 20 #$ sig_a [19:0] $end
$var wire 1 $$ s_sm $end
$var wire 1 %$ s_lg $end
$var wire 1 &$ s_b $end
$var wire 1 '$ s_a $end
$var wire 40 ($ norm_wide [39:0] $end
$var wire 15 )$ mant_out [14:0] $end
$var wire 15 *$ mant_norm [14:0] $end
$var wire 16 +$ mant_inc [15:0] $end
$var wire 1 ,$ mant_carry $end
$var wire 15 -$ m_b [14:0] $end
$var wire 15 .$ m_a [14:0] $end
$var wire 1 /$ guard_bit $end
$var wire 1 0$ exp_underflow $end
$var wire 8 1$ exp_raw8 [7:0] $end
$var wire 1 2$ exp_overflow $end
$var wire 5 3$ exp_out [4:0] $end
$var wire 5 4$ ediff [4:0] $end
$var wire 5 5$ e_sm [4:0] $end
$var wire 5 6$ e_lg [4:0] $end
$var wire 5 7$ e_b [4:0] $end
$var wire 5 8$ e_a [4:0] $end
$var wire 5 9$ c [4:0] $end
$var wire 21 :$ a [20:0] $end
$scope function clz21 $end
$var reg 21 ;$ x [20:0] $end
$upscope $end
$upscope $end
$scope module u_fp21_to_fp16 $end
$var wire 6 <$ e_bias [5:0] $end
$var wire 21 =$ fp21 [20:0] $end
$var wire 1 >$ out_underflow $end
$var wire 1 ?$ round_up $end
$var wire 1 @$ sticky $end
$var wire 1 A$ s_21 $end
$var wire 1 B$ rnd_bit $end
$var wire 1 C$ out_overflow $end
$var wire 11 D$ mant_inc [10:0] $end
$var wire 1 E$ mant_carry $end
$var wire 10 F$ mant10_raw [9:0] $end
$var wire 15 G$ m_21 [14:0] $end
$var wire 1 H$ is_zero $end
$var wire 10 I$ fp16_mant [9:0] $end
$var wire 5 J$ fp16_exp [4:0] $end
$var wire 16 K$ fp16 [15:0] $end
$var wire 8 L$ exp_biased [7:0] $end
$var wire 9 M$ exp_adj [8:0] $end
$var wire 8 N$ e_bias_8 [7:0] $end
$var wire 5 O$ e_21 [4:0] $end
$var parameter 32 P$ EBIAS_W $end
$upscope $end
$scope module u_int_to_fp21 $end
$var wire 32 Q$ psum [31:0] $end
$var wire 1 R$ round_up $end
$var wire 1 S$ sticky $end
$var wire 1 T$ sign_bit $end
$var wire 32 U$ shifted [31:0] $end
$var wire 1 V$ round_bit $end
$var wire 15 W$ mant_raw [14:0] $end
$var wire 16 X$ mant_inc [15:0] $end
$var wire 15 Y$ mant_final [14:0] $end
$var wire 1 Z$ mant_carry $end
$var wire 32 [$ mag [31:0] $end
$var wire 1 \$ is_zero $end
$var wire 21 ]$ fp21 [20:0] $end
$var wire 5 ^$ exp_raw [4:0] $end
$var wire 5 _$ exp_final [4:0] $end
$var wire 6 `$ clz [5:0] $end
$scope function clz32 $end
$var reg 32 a$ x [31:0] $end
$upscope $end
$upscope $end
$upscope $end
$upscope $end
$scope task check_result $end
$var reg 16 b$ exp0 [15:0] $end
$var reg 16 c$ exp1 [15:0] $end
$var reg 16 d$ exp2 [15:0] $end
$var reg 16 e$ exp3 [15:0] $end
$var reg 16 f$ got0 [15:0] $end
$var reg 16 g$ got1 [15:0] $end
$var reg 16 h$ got2 [15:0] $end
$var reg 16 i$ got3 [15:0] $end
$var reg 32 j$ tc_id [31:0] $end
$upscope $end
$scope task do_clear $end
$upscope $end
$scope task do_reset $end
$upscope $end
$scope task drive_accumulation $end
$var reg 32 k$ val0 [31:0] $end
$var reg 32 l$ val1 [31:0] $end
$var reg 32 m$ val2 [31:0] $end
$var reg 32 n$ val3 [31:0] $end
$upscope $end
$upscope $end
$enddefinitions $end
$comment Show the parameter values. $end
$dumpall
b110 P$
b11 p#
b110 ^#
b10 ~"
b110 l"
b1 ."
b110 z
b0 <
b100000 9
b100 8
b1010 7
b1010 6
b1111 5
b101 4
b110 3
b100000 %
b100 $
b1010 #
$end
#0
$dumpvars
bx n$
bx m$
bx l$
bx k$
bx j$
bx i$
bx h$
bx g$
bx f$
bx e$
bx d$
bx c$
bx b$
b0 a$
b100000 `$
b11111 _$
b11111 ^$
b0 ]$
1\$
b0 [$
0Z$
b0 Y$
b0 X$
b0 W$
0V$
b0 U$
0T$
0S$
0R$
b0 Q$
b0 O$
b11100111 N$
b11110110 M$
b11110110 L$
b0 K$
b11111 J$
b0 I$
1H$
b0 G$
b0 F$
0E$
b0 D$
1C$
0B$
0A$
0@$
0?$
1>$
b0 =$
b100111 <$
b100000000000000000000 ;$
b0 :$
b0 9$
b0 8$
b0 7$
b0 6$
b0 5$
b0 4$
b1 3$
02$
b1 1$
00$
0/$
b0 .$
b0 -$
0,$
b0 +$
b0 *$
b0 )$
b100000000000000000000000000000000000000 ($
0'$
0&$
0%$
0$$
b10000000000000000000 #$
b10000000000000000000 "$
b10000000000000000000 !$
b10000000000000000000 ~#
b10000000000000000000 }#
0|#
b100000000000000000000 {#
b1000000000000000000000000000000000000000 z#
0y#
b0 x#
1w#
1v#
1u#
0t#
0s#
b0 r#
1q#
b0 o#
b100000 n#
b11111 m#
b11111 l#
b0 k#
1j#
b0 i#
0h#
b0 g#
b0 f#
b0 e#
0d#
b0 c#
0b#
0a#
0`#
b0 _#
b0 ]#
b11100111 \#
b11110110 [#
b11110110 Z#
b0 Y#
b11111 X#
b0 W#
1V#
b0 U#
b0 T#
0S#
b0 R#
1Q#
0P#
0O#
0N#
0M#
1L#
b0 K#
b100111 J#
b100000000000000000000 I#
b0 H#
b0 G#
b0 F#
b0 E#
b0 D#
b0 C#
b0 B#
b1 A#
0@#
b1 ?#
0>#
0=#
b0 <#
b0 ;#
0:#
b0 9#
b0 8#
b0 7#
b100000000000000000000000000000000000000 6#
05#
04#
03#
02#
b10000000000000000000 1#
b10000000000000000000 0#
b10000000000000000000 /#
b10000000000000000000 .#
b10000000000000000000 -#
0,#
b100000000000000000000 +#
b1000000000000000000000000000000000000000 *#
0)#
b0 (#
1'#
1&#
1%#
0$#
0##
b0 "#
1!#
b0 }"
b100000 |"
b11111 {"
b11111 z"
b0 y"
1x"
b0 w"
0v"
b0 u"
b0 t"
b0 s"
0r"
b0 q"
0p"
0o"
0n"
b0 m"
b0 k"
b11100111 j"
b11110110 i"
b11110110 h"
b0 g"
b11111 f"
b0 e"
1d"
b0 c"
b0 b"
0a"
b0 `"
1_"
0^"
0]"
0\"
0["
1Z"
b0 Y"
b100111 X"
b100000000000000000000 W"
b0 V"
b0 U"
b0 T"
b0 S"
b0 R"
b0 Q"
b0 P"
b1 O"
0N"
b1 M"
0L"
0K"
b0 J"
b0 I"
0H"
b0 G"
b0 F"
b0 E"
b100000000000000000000000000000000000000 D"
0C"
0B"
0A"
0@"
b10000000000000000000 ?"
b10000000000000000000 >"
b10000000000000000000 ="
b10000000000000000000 <"
b10000000000000000000 ;"
0:"
b100000000000000000000 9"
b1000000000000000000000000000000000000000 8"
07"
b0 6"
15"
14"
13"
02"
01"
b0 0"
1/"
b0 -"
b100000 ,"
b11111 +"
b11111 *"
b0 )"
1("
b0 '"
0&"
b0 %"
b0 $"
b0 #"
0""
b0 !"
0~
0}
0|
b0 {
b0 y
b11100111 x
b11110110 w
b11110110 v
b0 u
b11111 t
b0 s
1r
b0 q
b0 p
0o
b0 n
1m
0l
0k
0j
0i
1h
b0 g
b100111 f
b100000000000000000000 e
b0 d
b0 c
b0 b
b0 a
b0 `
b0 _
b0 ^
b1 ]
0\
b1 [
0Z
0Y
b0 X
b0 W
0V
b0 U
b0 T
b0 S
b100000000000000000000000000000000000000 R
0Q
0P
0O
0N
b10000000000000000000 M
b10000000000000000000 L
b10000000000000000000 K
b10000000000000000000 J
b10000000000000000000 I
0H
b100000000000000000000 G
b1000000000000000000000000000000000000000 F
0E
b0 D
1C
1B
1A
0@
0?
b0 >
1=
b100 ;
bx :
b100111 2
b0 1
b0 0
b0 /
b0 .
0-
0,
x+
0*
b0 )
b0 (
0'
0&
bx "
0!
$end
#5000
b100 ;
1'
#10000
0'
#15000
b100 ;
1'
#20000
0'
#25000
b100 ;
1'
#30000
1,
0'
#35000
1'
#36000
b1111 t
b1111 f"
b1111 X#
b1111 J$
0m
0_"
0Q#
0C$
b1111 w
b1111 v
b0 x
b1111 i"
b1111 h"
b0 j"
b1111 [#
b1111 Z#
b0 \#
b1111 M$
b1111 L$
b0 N$
b0 2
b0 f
b0 X"
b0 J#
b0 <$
b11001 (
b11001 0
#40000
1&
0'
#45000
b100 ;
1'
#50000
b100000 n$
b100000 m$
b100000 l$
b100000 k$
0&
0'
#55000
1'
#60000
b10000000000 )$
b10000000000 7#
b10000000000 E"
b10000000000 S
b10000000000 +$
b10000000000 *$
b10000000000 9#
b10000000000 8#
b10000000000 G"
b10000000000 F"
b10000000000 U
b10000000000 T
b100001000000000000000000000000000000000 ($
b100001000000000000000000000000000000000 6#
b100001000000000000000000000000000000000 D"
b100001000000000000000000000000000000000 R
b1 9$
b10000100000000000000 ;$
b1 G#
b10000100000000000000 I#
b1 U"
b10000100000000000000 W"
b1 c
b10000100000000000000 e
b100001000000000000000000000000000000000 z#
b10000100000000000000 {#
b100001000000000000000000000000000000000 *#
b10000100000000000000 +#
b100001000000000000000000000000000000000 8"
b10000100000000000000 9"
b100001000000000000000000000000000000000 F
b10000100000000000000 G
b100000000000000 }#
b101 3$
b100000000000000 -#
b101 A#
b100000000000000 ;"
b101 O"
b100000000000000 I
b101 ]
b101000000000000000 x#
b101 4$
02$
b101 1$
b101 6$
b101000000000000000 (#
b101 B#
0@#
b101 ?#
b101 D#
b101000000000000000 6"
b101 P"
0N"
b101 M"
b101 R"
b101000000000000000 D
b101 ^
0\
b101 [
b101 `
b101 8$
b101 _$
b101 F#
b101 m#
b101 T"
b101 {"
b101 b
b101 +"
0w#
b101000000000000000 :$
b101000000000000000 ]$
b101 ^$
0'#
b101000000000000000 H#
b101000000000000000 k#
b101 l#
05"
b101000000000000000 V"
b101000000000000000 y"
b101 z"
0C
b101000000000000000 d
b101000000000000000 )"
b101 *"
0\$
b10000000000000000000000000000000 U$
b11010 `$
b100000 a$
0j#
b10000000000000000000000000000000 c#
b11010 n#
b100000 o#
0x"
b10000000000000000000000000000000 q"
b11010 |"
b100000 }"
0("
b10000000000000000000000000000000 !"
b11010 ,"
b100000 -"
b100000 [$
b100000 i#
b100000 w"
b100000 '"
b100000 Q$
b100000 _#
b100000 m"
b100000 {
1*
b100000000000000000000000000000001000000000000000000000000000000010000000000000000000000000000000100000 )
b100000000000000000000000000000001000000000000000000000000000000010000000000000000000000000000000100000 1
0'
#65000
b0 )$
b0 7#
b0 E"
b0 S
b110 3$
b0 +$
b0 *$
b110 A#
b0 9#
b0 8#
b110 O"
b0 G"
b0 F"
b110 ]
b0 U
b0 T
b110 1$
b0 9$
b100000000000000000000 ;$
b100000000000000000000000000000000000000 ($
b110 ?#
b0 G#
b100000000000000000000 I#
b100000000000000000000000000000000000000 6#
b110 M"
b0 U"
b100000000000000000000 W"
b100000000000000000000000000000000000000 D"
b110 [
b0 c
b100000000000000000000 e
b100000000000000000000000000000000000000 R
b1000000000000000000000000000000000000000 z#
b100000000000000000000 {#
b1000000000000000000000000000000000000000 *#
b100000000000000000000 +#
b1000000000000000000000000000000000000000 8"
b100000000000000000000 9"
b1000000000000000000000000000000000000000 F
b100000000000000000000 G
b10000000000000000000 }#
b10100 J$
b10000000000000000000 -#
b10100 X#
b10000000000000000000 ;"
b10100 f"
b10000000000000000000 I
b10100 t
b0 4$
b101 5$
b110000000000000000 x#
b101000000000000 K$
b0 B#
b101 C#
b110000000000000000 (#
b101000000000000 Y#
b0 P"
b101 Q"
b110000000000000000 6"
b101000000000000 g"
b0 ^
b101 _
b110000000000000000 D
b101000000000000 u
b101 7$
b10100 M$
b10100 L$
b101 O$
0>$
b101 E#
b10100 [#
b10100 Z#
b101 ]#
0L#
b101 S"
b10100 i"
b10100 h"
b101 k"
0Z"
b101 a
b10100 w
b10100 v
b101 y
0h
0v#
0H$
b101000000000000000 r#
b101000000000000000 =$
0&#
0V#
b101000000000000000 "#
b101000000000000000 K#
04"
0d"
b101000000000000000 0"
b101000000000000000 Y"
0B
0r
b101000000000000000 >
b101000000000000000 g
b100 ;
1'
#70000
1+
b101000000000000 e$
b101000000000000 d$
b101000000000000 c$
b101000000000000 b$
b1 j$
0*
0'
#75000
1'
#80000
1-
0'
#85000
1!
b101000000000000010100000000000001010000000000000101000000000000 "
b101000000000000010100000000000001010000000000000101000000000000 :
b100 ;
1'
#90000
0-
0'
#91000
b1 /
b101000000000000 i$
b101000000000000 h$
b101000000000000 g$
b101000000000000 f$
#95000
0!
1'
#100000
1&
0'
#105000
b10000000000 )$
b10000000000 7#
b10000000000 E"
b10000000000 S
b10000000000 +$
b10000000000 *$
b10000000000 9#
b10000000000 8#
b10000000000 G"
b10000000000 F"
b10000000000 U
b10000000000 T
b101 3$
b100001000000000000000000000000000000000 ($
b101 A#
b100001000000000000000000000000000000000 6#
b101 O"
b100001000000000000000000000000000000000 D"
b101 ]
b100001000000000000000000000000000000000 R
b101 1$
b1 9$
b10000100000000000000 ;$
b101 ?#
b1 G#
b10000100000000000000 I#
b101 M"
b1 U"
b10000100000000000000 W"
b101 [
b1 c
b10000100000000000000 e
b100001000000000000000000000000000000000 z#
b10000100000000000000 {#
b100001000000000000000000000000000000000 *#
b10000100000000000000 +#
b100001000000000000000000000000000000000 8"
b10000100000000000000 9"
b100001000000000000000000000000000000000 F
b10000100000000000000 G
b100000000000000 }#
b1111 J$
b100000000000000 -#
b1111 X#
b100000000000000 ;"
b1111 f"
b100000000000000 I
b1111 t
b101 4$
b0 5$
b101000000000000000 x#
b0 K$
b101 B#
b0 C#
b101000000000000000 (#
b0 Y#
b101 P"
b0 Q"
b101000000000000000 6"
b0 g"
b101 ^
b0 _
b101000000000000000 D
b0 u
b0 7$
b1111 M$
b1111 L$
b0 O$
1>$
b0 E#
b1111 [#
b1111 Z#
b0 ]#
1L#
b0 S"
b1111 i"
b1111 h"
b0 k"
1Z"
b0 a
b1111 w
b1111 v
b0 y
1h
1v#
1H$
b0 r#
b0 =$
1&#
1V#
b0 "#
b0 K#
14"
1d"
b0 0"
b0 Y"
1B
1r
b0 >
b0 g
b100 ;
1'
#110000
b11111111111111111111111111110000 n$
b10000 m$
b11111111111111111111111111100000 l$
0&
0'
#115000
1'
#120000
b100000000000 7#
b111000000000000 )$
b100000000000 9#
b100000000000 8#
b111100000000000 E"
b10001000000000000000 I#
b100010000000000000000000000000000000000 6#
b111000000000000 +$
b111000000000000 *$
b1000000000000000 }#
b11 3$
b100010000000000000000000000000000000000 *#
b10001000000000000000 +#
b1000000000000000 -#
b100 A#
b111100000000000 G"
b111100000000000 F"
b100000000000000 ;"
b100 O"
b10 9$
b1111000000000000000 ;$
b111100000000000000000000000000000000000 ($
b10000000000000000000 !$
b100 4$
b11 1$
b100 6$
b100000000000000000 (#
b10000000000000000000 /#
b100 B#
b100 ?#
b100 D#
b10 U"
b1111100000000000000 W"
b111110000000000000000000000000000000000 D"
b101 P"
b100 M"
b101 R"
b11110000000000000000000000000000000000 z#
b1111000000000000000 {#
b10000000000000000000 #$
b0 .$
b100 8$
b10000000000000000000 1#
b0 <#
b100 F#
b11111000000000000000000000000000000000 8"
b1111100000000000000 9"
b101 T"
0u#
b100000000000000000 H#
b100000000000000000 k#
03"
b100100000000000000000 x#
1t#
1%$
b100 _$
b0 Y$
b100 m#
b0 g#
b100101000000000000000 6"
12"
1A"
b101 {"
1'$
b100 ^$
0S$
b100 l#
1C"
b101 z"
0o"
b100100000000000000000 :$
b100100000000000000000 ]$
b11011 `$
b10000 a$
b0 X$
b0 W$
b11011 n#
b10000 o#
b0 f#
b0 e#
b100101000000000000000 V"
b100101000000000000000 y"
b10000000000000000000000000000000 q"
b11010 |"
b100000 }"
1T$
b10000000000000000000000000000000 U$
b10000 [$
b10000000000000000000000000000000 c#
b10000 i#
1p"
b100000 w"
b11111111111111111111111111110000 Q$
b10000 _#
b11111111111111111111111111100000 m"
1*
b11111111111111111111111111110000000000000000000000000000000100001111111111111111111111111110000000000000000000000000000000100000 )
b11111111111111111111111111110000000000000000000000000000000100001111111111111111111111111110000000000000000000000000000000100000 1
0'
#125000
b0 )$
b0 7#
b0 E"
b0 S
b101 3$
b0 +$
b0 *$
b101 A#
b0 9#
b0 8#
b110 O"
b0 G"
b0 F"
b110 ]
b0 U
b0 T
b101 1$
b0 9$
b100000000000000000000 ;$
b100000000000000000000000000000000000000 ($
b101 ?#
b0 G#
b100000000000000000000 I#
b100000000000000000000000000000000000000 6#
b110 M"
b0 U"
b100000000000000000000 W"
b100000000000000000000000000000000000000 D"
b110 [
b0 c
b100000000000000000000 e
b100000000000000000000000000000000000000 R
b1000000000000000000000000000000000000000 z#
b100000000000000000000 {#
b1000000000000000000000000000000000000000 *#
b100000000000000000000 +#
b1000000000000000000000000000000000000000 8"
b100000000000000000000 9"
b1000000000000000000000000000000000000000 F
b100000000000000000000 G
1u#
b10000000000000000000 }#
b10011 J$
b10000000000000000000 -#
b10011 X#
13"
b10000000000000000000 ;"
b10100 f"
b10000000000000000000 I
b10100 t
1$$
b0 4$
b100 5$
b100101000000000000000 x#
b1100110000000000 K$
b0 B#
b100 C#
b101000000000000000 (#
b100110000000000 Y#
1@"
b0 P"
b101 Q"
b100110000000000000000 6"
b1101000000000000 g"
b0 ^
b101 _
b110000000000000000 D
b101000000000000 u
1&$
b100 7$
1A$
b10011 M$
b10011 L$
b100 O$
0>$
b100 E#
b10011 [#
b10011 Z#
b100 ]#
0L#
1B"
b101 S"
1]"
b10100 i"
b10100 h"
b101 k"
0Z"
b101 a
b10100 w
b10100 v
b101 y
0h
0v#
0H$
b100100000000000000000 r#
b100100000000000000000 =$
0&#
0V#
b100000000000000000 "#
b100000000000000000 K#
04"
0d"
b100101000000000000000 0"
b100101000000000000000 Y"
0B
0r
b101000000000000000 >
b101000000000000000 g
b100 ;
1'
